
            Data Siswa:
            Nik: 10
            Nama: Asep
            Alamat: Bandung
            Umur: 10

            Data orant tua:
            Nama Ayah: Ujang
            Nama Ibu: Listia

            ----------------
            
            Data Siswa:
            Nik: 11
            Nama: Dadang
            Alamat: Jakarta
            Umur: 15

            Data orant tua:
            Nama Ayah: Odang
            Nama Ibu: Susi

            ----------------
            
            Data Siswa:
            Nik: 12
            Nama: Joko
            Alamat: Bandung
            Umur: 16

            Data orant tua:
            Nama Ayah: Jajang
            Nama Ibu: Sulastri

            ----------------
            
            Data Siswa:
            Nik: 13
            Nama: Dondy
            Alamat: Yogyakarta
            Umur: 18

            Data orant tua:
            Nama Ayah: Tatang
            Nama Ibu: Santi

            ----------------
            